<?xml version="1.0" standalone="no"?>
<!DOCTYPE svg PUBLIC "-//W3C//DTD SVG 20010904//EN"
 "http://www.w3.org/TR/2001/REC-SVG-20010904/DTD/svg10.dtd">
<svg version="1.0" xmlns="http://www.w3.org/2000/svg"
 width="1280.000000pt" height="480.000000pt" viewBox="0 0 1280.000000 480.000000"
 preserveAspectRatio="xMidYMid meet">

<g transform="translate(0.000000,480.000000) scale(0.100000,-0.100000)"
fill="#000000" stroke="none">
<path d="M470 2530 l0 -1710 425 0 425 0 0 1297 0 1296 21 -19 c36 -32 165
-208 204 -279 83 -149 130 -289 162 -488 14 -88 17 -222 20 -955 l4 -852 419
0 418 0 4 822 c5 890 8 946 63 1165 46 181 149 374 290 541 l60 71 3 -1300 2
-1299 420 0 420 0 0 1710 0 1710 -564 0 -564 0 -53 -57 c-182 -200 -349 -472
-451 -734 -31 -82 -44 -106 -50 -92 -139 345 -287 594 -488 821 l-54 62 -568
0 -568 0 0 -1710z"/>
<path d="M4861 4128 c-213 -320 -377 -736 -466 -1183 -94 -468 -125 -883 -125
-1667 l0 -458 420 0 420 0 0 285 0 285 205 0 205 0 0 -285 0 -285 425 0 425 0
0 464 c0 640 -19 980 -76 1376 -84 584 -262 1086 -524 1478 l-65 97 -385 3
-385 2 -74 -112z m503 -741 c80 -276 137 -713 153 -1159 l6 -198 -206 0 -207
0 0 63 c0 89 18 402 30 537 26 287 73 559 132 760 17 58 33 114 36 125 5 17 7
15 19 -13 7 -18 24 -70 37 -115z"/>
<path d="M6810 2530 l0 -1710 420 0 420 0 0 770 0 770 405 0 405 0 0 325 0
325 -405 0 -405 0 0 290 0 290 425 0 425 0 0 325 0 325 -845 0 -845 0 0 -1710z"/>
<path d="M8880 2530 l0 -1710 420 0 420 0 0 1710 0 1710 -420 0 -420 0 0
-1710z"/>
<path d="M10837 4208 c-201 -267 -378 -668 -482 -1093 -121 -492 -165 -985
-165 -1862 l0 -433 420 0 420 0 0 285 0 285 205 0 205 0 0 -285 0 -285 425 0
425 0 0 493 c0 503 -8 735 -36 1027 -70 744 -246 1311 -553 1782 l-76 118
-382 0 -382 0 -24 -32z m441 -796 c88 -306 145 -723 159 -1174 l6 -208 -207 0
-208 0 7 148 c24 577 78 961 176 1274 12 37 25 68 29 68 4 0 21 -49 38 -108z"/>
<path d="M12383 933 c13 -3 17 -15 17 -49 0 -24 5 -44 10 -44 6 0 10 18 10 40
0 27 6 42 18 49 13 8 7 10 -28 10 -25 -1 -37 -3 -27 -6z"/>
<path d="M12470 889 c0 -31 4 -48 10 -44 6 3 10 14 11 23 0 12 3 11 9 -5 13
-32 26 -28 36 10 l8 32 3 -33 c6 -47 23 -29 23 24 0 37 -3 44 -19 44 -14 0
-22 -10 -27 -32 l-7 -33 -10 33 c-16 51 -37 41 -37 -19z"/>
<path d="M390 620 l0 -30 5960 0 5960 0 0 30 0 30 -5960 0 -5960 0 0 -30z"/>
</g>
</svg>
